[
    {
        "name": "PHP Xtreme Programming bootcamp",
        "description" : "PHP for begineers",
        "website": "laravel.org/bootcamp",
        "phone" : "(111)-111111",
        "user_id" : 1,
        "average_rating" : 4.5,
        "average_cost" : 2000
    },
    {
        "name": "Python Xtreme Programming bootcamp",
        "description" : "Python for begineers",
        "website": "python.org/bootcamp",
        "phone" : "(222)-222222",
        "user_id" : 1,
        "average_rating" : 4.5,
        "average_cost" : 2000
    },
    {
        "name": "Ruby Xtreme Programming bootcamp",
        "description" : "Ruby for begineers",
        "website": "ruby.org/bootcamp",
        "phone" : "(333)-333333",
        "user_id" : 1,
        "average_rating" : 4.5,
        "average_cost" : 2000
    }
]